src/CPU_WAVE.vcd
$date
	Tue Jun 06 22:04:50 2023
$end
$version
	Icarus Verilog
$end
$timescale
	1ps
$end
$scope module tb_CPU206 $end
$var reg 1 ! clk $end
$var reg 1 " rst $end
$var integer 32 # clk_num [31:0] $end
$var integer 32 $ fd [31:0] $end
$var integer 32 % i [31:0] $end
$scope module u_CPU206 $end
$var wire 1 ! clk $end
$var wire 1 " rst $end
$var wire 1 & WrByte $end
$var wire 1 ' Rtype_L $end
$var wire 1 ( Rtype_J $end
$var wire 1 ) Rtype $end
$var wire 1 * RegWr $end
$var wire 1 + RegDst $end
$var wire 1 , MemWr $end
$var wire 1 - MemToReg $end
$var wire 2 . LoadByte [1:0] $end
$var wire 1 / Jump $end
$var wire 1 0 Jal $end
$var wire 32 1 Instruction [31:0] $end
$var wire 2 2 ExtOp [1:0] $end
$var wire 1 3 Branch $end
$var wire 1 4 ALUSrc $end
$var wire 5 5 ALUCtr [4:0] $end
$scope module ControlUnit $end
$var wire 1 ! clk $end
$var wire 6 6 func [5:0] $end
$var wire 6 7 OP [5:0] $end
$var wire 32 8 Instruction [31:0] $end
$var reg 5 9 ALUCtr [4:0] $end
$var reg 1 4 ALUSrc $end
$var reg 1 3 Branch $end
$var reg 2 : ExtOp [1:0] $end
$var reg 1 0 Jal $end
$var reg 1 / Jump $end
$var reg 2 ; LoadByte [1:0] $end
$var reg 1 - MemToReg $end
$var reg 1 , MemWr $end
$var reg 1 + RegDst $end
$var reg 1 * RegWr $end
$var reg 1 ) Rtype $end
$var reg 1 ( Rtype_J $end
$var reg 1 ' Rtype_L $end
$var reg 1 & WrByte $end
$upscope $end
$scope module DataPath $end
$var wire 5 < ALUCtr [4:0] $end
$var wire 1 4 ALUSrc $end
$var wire 1 3 Branch $end
$var wire 2 = ExtOp [1:0] $end
$var wire 1 0 Jal $end
$var wire 1 / Jump $end
$var wire 2 > LoadByte [1:0] $end
$var wire 1 - MemToReg $end
$var wire 1 , MemWr $end
$var wire 1 + RegDst $end
$var wire 1 * RegWr $end
$var wire 1 ) Rtype $end
$var wire 1 ( Rtype_J $end
$var wire 1 ' Rtype_L $end
$var wire 1 & WrByte $end
$var wire 1 ! clk $end
$var wire 1 " rst $end
$var wire 5 ? shamt [4:0] $end
$var wire 32 @ imm16_Ext [31:0] $end
$var wire 16 A imm16 [15:0] $end
$var wire 32 B busW [31:0] $end
$var wire 32 C busB [31:0] $end
$var wire 32 D busA [31:0] $end
$var wire 1 E ZF $end
$var wire 1 F SF $end
$var wire 5 G Rw [4:0] $end
$var wire 5 H Rt [4:0] $end
$var wire 5 I Rs [4:0] $end
$var wire 5 J Rd [4:0] $end
$var wire 1 K OF $end
$var wire 32 L MUX1_out [31:0] $end
$var wire 32 M Link_Addr [31:0] $end
$var wire 32 N Instruction [31:0] $end
$var wire 32 O Data_B_In [31:0] $end
$var wire 32 P DM_out [31:0] $end
$var wire 32 Q DM_data_out [31:0] $end
$var wire 8 R DM_Byte_out [7:0] $end
$var wire 32 S Byte_Ext [31:0] $end
$var wire 32 T ALU_result [31:0] $end
$scope module ALU $end
$var wire 5 U ALUCtr [4:0] $end
$var wire 5 V shamt [4:0] $end
$var wire 32 W B [31:0] $end
$var wire 32 X A [31:0] $end
$var reg 1 K OverFlow $end
$var reg 1 F Sign $end
$var reg 1 E Zero $end
$var reg 32 Y result [31:0] $end
$var reg 33 Z temp [32:0] $end
$var integer 32 [ t1 [31:0] $end
$var integer 32 \ t2 [31:0] $end
$upscope $end
$scope module DM_4K $end
$var wire 12 ] Addr [11:0] $end
$var wire 8 ^ ByteDout [7:0] $end
$var wire 1 & WrByte $end
$var wire 1 , WrEn $end
$var wire 1 ! clk $end
$var wire 32 _ Dout [31:0] $end
$var wire 32 ` Din [31:0] $end
$upscope $end
$scope module ExtUnitByte $end
$var wire 1 a ExtOp $end
$var wire 8 b in [7:0] $end
$var wire 32 c out [31:0] $end
$var reg 32 d out_t [31:0] $end
$upscope $end
$scope module ExtUnitImm $end
$var wire 2 e ExtOp [1:0] $end
$var wire 16 f in [15:0] $end
$var wire 32 g out [31:0] $end
$var reg 32 h out_t [31:0] $end
$upscope $end
$scope module IFetchUnit $end
$var wire 1 3 Branch $end
$var wire 5 i BranchFlag [4:0] $end
$var wire 16 j Imm16 [15:0] $end
$var wire 26 k J_Target [25:0] $end
$var wire 1 / Jump $end
$var wire 6 l OP [5:0] $end
$var wire 1 K OverFlow $end
$var wire 32 m RJ_Addr [31:0] $end
$var wire 1 ( Rtype_J $end
$var wire 1 F Sign $end
$var wire 1 E Zero $end
$var wire 1 ! clk $end
$var wire 1 " rst $end
$var wire 30 n PC_input_Addr [31:2] $end
$var wire 30 o PC_cur [31:2] $end
$var wire 30 p NPC_next [31:2] $end
$var wire 32 q Link_Addr [31:0] $end
$var wire 32 r Instruction [31:0] $end
$var wire 30 s I_Addr [31:2] $end
$scope module Im $end
$var wire 10 t Addr [11:2] $end
$var wire 32 u Dout [31:0] $end
$upscope $end
$scope module MUX_PCSrc $end
$var wire 30 v A [29:0] $end
$var wire 1 ( S $end
$var wire 30 w Y [29:0] $end
$var wire 30 x B [29:0] $end
$upscope $end
$scope module NPC $end
$var wire 1 3 Branch $end
$var wire 5 y BranchFlag [4:0] $end
$var wire 30 z I_Addr [31:2] $end
$var wire 16 { Imm16 [15:0] $end
$var wire 26 | J_Target [25:0] $end
$var wire 1 / Jump $end
$var wire 30 } Next_I_Addr [31:2] $end
$var wire 6 ~ OP [5:0] $end
$var wire 1 K OverFlow $end
$var wire 1 F Sign $end
$var wire 1 E Zero $end
$var wire 30 !" imm16_Ext [31:2] $end
$var wire 30 "" Y2 [31:2] $end
$var wire 30 #" Y1 [31:2] $end
$var wire 30 $" PC_Plus_4 [31:2] $end
$var wire 30 %" PC_Addr [31:2] $end
$var wire 30 &" J_Addr [31:2] $end
$var wire 1 '" BranchControl $end
$var wire 30 (" B_Addr [31:2] $end
$scope module Branch_Control_Uint $end
$var wire 1 3 Branch $end
$var wire 5 )" BranchFlag [4:0] $end
$var wire 6 *" OP [5:0] $end
$var wire 1 K OverFlow $end
$var wire 1 F Sign $end
$var wire 1 E Zero $end
$var reg 1 '" BranchCtr $end
$upscope $end
$scope module MUX_B $end
$var wire 30 +" A [29:0] $end
$var wire 30 ," B [29:0] $end
$var wire 1 '" S $end
$var wire 30 -" Y [29:0] $end
$upscope $end
$scope module MUX_J $end
$var wire 30 ." A [29:0] $end
$var wire 30 /" B [29:0] $end
$var wire 1 / S $end
$var wire 30 0" Y [29:0] $end
$upscope $end
$scope module SEXT $end
$var wire 1 1" ExtOp $end
$var wire 16 2" in [15:0] $end
$var wire 30 3" out [29:0] $end
$var reg 30 4" out_t [29:0] $end
$upscope $end
$upscope $end
$scope module PC $end
$var wire 30 5" Next_I_Addr [31:2] $end
$var wire 1 ! clk $end
$var wire 1 " rst $end
$var reg 30 6" I_Addr [31:2] $end
$upscope $end
$upscope $end
$scope module MUX_ALU_B $end
$var wire 32 7" A [31:0] $end
$var wire 1 4 S $end
$var wire 32 8" Y [31:0] $end
$var wire 32 9" B [31:0] $end
$upscope $end
$scope module MUX_ByteData $end
$var wire 32 :" A [31:0] $end
$var wire 32 ;" B [31:0] $end
$var wire 1 <" S $end
$var wire 32 =" Y [31:0] $end
$upscope $end
$scope module MUX_LinkSrc $end
$var wire 32 >" A [31:0] $end
$var wire 1 ?" S $end
$var wire 32 @" Y [31:0] $end
$var wire 32 A" B [31:0] $end
$upscope $end
$scope module MUX_Reg $end
$var wire 5 B" A [4:0] $end
$var wire 5 C" B [4:0] $end
$var wire 1 + S $end
$var wire 5 D" Y [4:0] $end
$upscope $end
$scope module MUX_RegWirteSrc $end
$var wire 32 E" A [31:0] $end
$var wire 32 F" B [31:0] $end
$var wire 1 - S $end
$var wire 32 G" Y [31:0] $end
$upscope $end
$scope module Regfile $end
$var wire 1 0 Jal $end
$var wire 5 H" Ra [4:0] $end
$var wire 5 I" Rb [4:0] $end
$var wire 5 J" Rw [4:0] $end
$var wire 1 K" WrEn $end
$var wire 32 L" busA [31:0] $end
$var wire 32 M" busB [31:0] $end
$var wire 32 N" busW [31:0] $end
$var wire 1 ! clk $end
$upscope $end
$upscope $end
$upscope $end
$upscope $end
$enddefinitions $end
#0
$dumpvars
b1 N"
b0 M"
b0 L"
1K"
b1 J"
b1 I"
b0 H"
b1 G"
b1 F"
bx E"
b1 D"
b1 C"
b0 B"
b1 A"
b1 @"
0?"
b100 >"
bx ="
0<"
bx ;"
b0xxxxxxxx :"
b0 9"
b1 8"
b1 7"
b0 6"
b1 5"
b1 4"
b1 3"
b1 2"
11"
b1 0"
b1 /"
b10000000000000001 ."
b1 -"
b1 ,"
b1 +"
b1001 *"
b1 )"
b1 ("
0'"
b10000000000000001 &"
b0 %"
b1 $"
b1 #"
b1 ""
b1 !"
b1001 ~
b1 }
b10000000000000001 |
b1 {
b0 z
b1 y
b1 x
b1 w
b0 v
b100100000000010000000000000001 u
b0 t
b0 s
b100100000000010000000000000001 r
b100 q
b1 p
b0 o
b1 n
b1 m
b1001 l
b10000000000000001 k
b1 j
b1 i
b1 h
b1 g
b1 f
b1 e
b0xxxxxxxx d
b0xxxxxxxx c
bx b
0a
b0 `
bx _
bx ^
b1 ]
bx \
bx [
bx Z
b1 Y
b0 X
b1 W
b0 V
b1 U
b1 T
b0xxxxxxxx S
bx R
bx Q
bx P
b1 O
b100100000000010000000000000001 N
b100 M
b1 L
0K
b0 J
b0 I
b1 H
b1 G
0F
0E
b0 D
b0 C
b1 B
b1 A
b1 @
b0 ?
b0 >
b1 =
b1 <
b0 ;
b1 :
b1 9
b100100000000010000000000000001 8
b1001 7
b1 6
b1 5
14
03
b1 2
b100100000000010000000000000001 1
00
0/
b0 .
0-
0,
0+
1*
0)
0(
0'
0&
b0 %
b10000000000000000000000000000011 $
b0 #
1"
1!
$end
#5000
b100000 %
b1 #
0!
#10000
b1 C
b1 `
b1 9"
b1 M"
1!
#11000
0"
#15000
b100000 %
b10 #
0!
#20000
b10000 B
b10000 @"
b10000 N"
b100 v
b10000 L
b10000 A"
b10000 G"
b10000 ]
b10 G
b10 D"
b10 J"
b10 n
b10 w
b10 5"
b1000100000000 !"
b1000100000000 3"
b1000100000000 4"
b10000 T
b10000 Y
b10000 m
b10000 F"
1)
b0x 2
b0x :
b0x =
b0x e
b1000 5
b1000 9
b1000 <
b1000 U
04
1+
b10 p
b10 x
b10 }
b10 ""
b10 0"
b10001000100000000 &"
b10001000100000000 ."
b10001000100000000 k
b10001000100000000 |
b1000100000000 j
b1000100000000 {
b1000100000000 2"
b0 l
b0 ~
b0 *"
b100 ?
b100 V
b1000100000000 A
b1000100000000 f
b10 J
b10 B"
b0 6
b0 7
b10 #"
b10 -"
b10 /"
b10001000100000000 1
b10001000100000000 8
b10001000100000000 N
b10001000100000000 r
b10001000100000000 u
b1 t
b1000100000001 ("
b1000100000001 +"
b10 $"
b10 ,"
b1 s
b1 z
b1000 M
b1000 q
b1000 >"
b1 o
b1 %"
b1 6"
1!
#25000
b100000 %
b11 #
0!
#30000
b10001 B
b10001 @"
b10001 N"
b10001 L
b10001 A"
b10001 G"
b10001 ]
b10001 T
b10001 Y
b10001 m
b10001 F"
b11 n
b11 w
b11 5"
b1100000100001 !"
b1100000100001 3"
b1100000100001 4"
b11 G
b11 D"
b11 J"
b1 5
b1 9
b1 <
b1 U
b11 p
b11 x
b11 }
b11 ""
b11 0"
b10000010001100000100001 &"
b10000010001100000100001 ."
b10000010001100000100001 k
b10000010001100000100001 |
b1100000100001 j
b1100000100001 {
b1100000100001 2"
b0 ?
b0 V
b1100000100001 A
b1100000100001 f
b11 J
b11 B"
b10000 D
b10000 X
b10000 L"
b10 I
b10 H"
b100001 6
b11 #"
b11 -"
b11 /"
b10000010001100000100001 1
b10000010001100000100001 8
b10000010001100000100001 N
b10000010001100000100001 r
b10000010001100000100001 u
b10 t
b1100000100011 ("
b1100000100011 +"
b11 $"
b11 ,"
b10 s
b10 z
b1100 M
b1100 q
b1100 >"
b10 o
b10 %"
b10 6"
1!
#35000
b100000 %
b100 #
0!
#40000
b100 B
b100 @"
b100 N"
b1 v
b100 L
b100 A"
b100 G"
b100 ]
b100 n
b100 w
b100 5"
b10000010000010 !"
b10000010000010 3"
b10000010000010 4"
b100 G
b100 D"
b100 J"
b10000 O
b10000 W
b10000 8"
0E
b100 T
b100 Y
b100 m
b100 F"
b1001 5
b1001 9
b1001 <
b1001 U
b100 p
b100 x
b100 }
b100 ""
b100 0"
b100010000010000010 &"
b100010000010000010 ."
b100010000010000010 k
b100010000010000010 |
b10000010000010 j
b10000010000010 {
b10000010000010 2"
b10 i
b10 y
b10 )"
b10 ?
b10 V
b10000010000010 A
b10000010000010 f
b100 J
b100 B"
b10000 C
b10000 `
b10000 9"
b10000 M"
b10 H
b10 C"
b10 I"
b0 D
b0 X
b0 L"
b0 I
b0 H"
b10 6
b100 #"
b100 -"
b100 /"
b100010000010000010 1
b100010000010000010 8
b100010000010000010 N
b100010000010000010 r
b100010000010000010 u
b11 t
b10000010000101 ("
b10000010000101 +"
b100 $"
b100 ,"
b11 s
b11 z
b10000 M
b10000 q
b10000 >"
b11 o
b11 %"
b11 6"
1!
#45000
b100000 %
b101 #
0!
#50000
b1 B
b1 @"
b1 N"
0E
b0 v
b1 L
b1 A"
b1 G"
b1 ]
b101 n
b101 w
b101 5"
b101 !"
b101 3"
b101 4"
b101 @
b101 g
b101 h
b101 7"
b11001 G
b11001 D"
b11001 J"
b101 O
b101 W
b101 8"
b1 T
b1 Y
b1 m
b1 F"
0)
b1 2
b1 :
b1 =
b1 e
b1100 5
b1100 9
b1100 <
b1100 U
14
0+
b101 p
b101 x
b101 }
b101 ""
b101 0"
b100110010000000000000101 &"
b100110010000000000000101 ."
b100110010000000000000101 k
b100110010000000000000101 |
b101 j
b101 {
b101 2"
b11001 i
b11001 y
b11001 )"
b1010 l
b1010 ~
b1010 *"
b0 ?
b0 V
b101 A
b101 f
b0 J
b0 B"
b0 C
b0 `
b0 9"
b0 M"
b11001 H
b11001 C"
b11001 I"
b100 D
b100 X
b100 L"
b100 I
b100 H"
b101 6
b1010 7
b101 #"
b101 -"
b101 /"
b101000100110010000000000000101 1
b101000100110010000000000000101 8
b101000100110010000000000000101 N
b101000100110010000000000000101 r
b101000100110010000000000000101 u
b100 t
b1001 ("
b1001 +"
b101 $"
b101 ,"
b100 s
b100 z
b10100 M
b10100 q
b10100 >"
b100 o
b100 %"
b100 6"
1!
#55000
b100000 %
b110 #
0!
#60000
1'"
bx B
bx @"
bx N"
0K"
bx L
bx A"
bx G"
b1 O
b1 W
b1 8"
b10101 n
b10101 w
b10101 5"
b10000 !"
b10000 3"
b10000 4"
b0x G
b0x D"
b0x J"
b0x 2
b0x :
b0x =
b0x e
0*
x-
b11111 5
b11111 9
b11111 <
b11111 U
04
x+
13
b10101 p
b10101 x
b10101 }
b10101 ""
b10101 0"
b11001000010000000000010000 &"
b11001000010000000000010000 ."
b11001000010000000000010000 k
b11001000010000000000010000 |
b10000 j
b10000 {
b10000 2"
b1 i
b1 y
b1 )"
b1 l
b1 ~
b1 *"
b10000 A
b10000 f
b1 H
b1 C"
b1 I"
b1 D
b1 X
b1 L"
b11001 I
b11001 H"
b10000 6
b1 7
b10101 #"
b10101 -"
b10101 /"
b111001000010000000000010000 1
b111001000010000000000010000 8
b111001000010000000000010000 N
b111001000010000000000010000 r
b111001000010000000000010000 u
b101 t
b10101 ("
b10101 +"
b110 $"
b110 ,"
b101 s
b101 z
b11000 M
b11000 q
b11000 >"
b101 o
b101 %"
b101 6"
b1 C
b1 `
b1 9"
b1 M"
1!
#65000
b100000 %
b111 #
0!
#70000
b110000000000000000 v
b0 ]
b11000000000000000000 T
b11000000000000000000 Y
b11000000000000000000 m
b11000000000000000000 F"
0'"
b11000000000000000000 B
b11000000000000000000 @"
b11000000000000000000 N"
1K"
b11000000000000000000 L
b11000000000000000000 A"
b11000000000000000000 G"
b10110 n
b10110 w
b10110 5"
b1100 !"
b1100 3"
b1100 4"
b11000000000000000000 @
b11000000000000000000 g
b11000000000000000000 h
b11000000000000000000 7"
b1100 G
b1100 D"
b1100 J"
b11000000000000000000 O
b11000000000000000000 W
b11000000000000000000 8"
b10 2
b10 :
b10 =
b10 e
1*
0-
b11110 5
b11110 9
b11110 <
b11110 U
14
0+
03
b10110 p
b10110 x
b10110 }
b10110 ""
b10110 0"
b11000000000000001100 &"
b11000000000000001100 ."
b11000000000000001100 k
b11000000000000001100 |
b1100 j
b1100 {
b1100 2"
b1100 i
b1100 y
b1100 )"
b1111 l
b1111 ~
b1111 *"
b1100 A
b1100 f
b0 C
b0 `
b0 9"
b0 M"
b1100 H
b1100 C"
b1100 I"
b0 D
b0 X
b0 L"
b0 I
b0 H"
b1100 6
b1111 7
b10110 #"
b10110 -"
b10110 /"
b111100000011000000000000001100 1
b111100000011000000000000001100 8
b111100000011000000000000001100 N
b111100000011000000000000001100 r
b111100000011000000000000001100 u
b10101 t
b100001 ("
b100001 +"
b10110 $"
b10110 ,"
b10101 s
b10101 z
b1011000 M
b1011000 q
b1011000 >"
b10101 o
b10101 %"
b10101 6"
1!
#75000
b100000 %
b1000 #
0!
#80000
b1100 B
b1100 @"
b1100 N"
b11 v
b1100 L
b1100 A"
b1100 G"
b1100 ]
b11010 G
b11010 D"
b11010 J"
b10111 n
b10111 w
b10111 5"
b111111111111111101000000000111 !"
b111111111111111101000000000111 3"
b111111111111111101000000000111 4"
b1100 T
b1100 Y
b1100 m
b1100 F"
1)
b0x 2
b0x :
b0x =
b0x e
b10010 5
b10010 9
b10010 <
b10010 U
04
1+
b10111 p
b10111 x
b10111 }
b10111 ""
b10111 0"
b10011001101000000000111 &"
b10011001101000000000111 ."
b10011001101000000000111 k
b10011001101000000000111 |
b1101000000000111 j
b1101000000000111 {
b1101000000000111 2"
b0 l
b0 ~
b0 *"
b1101000000000111 A
b1101000000000111 f
b11010 J
b11010 B"
b10000 D
b10000 X
b10000 L"
b10 I
b10 H"
b111 6
b0 7
b10111 #"
b10111 -"
b10111 /"
b10011001101000000000111 1
b10011001101000000000111 8
b10011001101000000000111 N
b10011001101000000000111 r
b10011001101000000000111 u
b10110 t
b111111111111111101000000011101 ("
b111111111111111101000000011101 +"
b10111 $"
b10111 ,"
b10110 s
b10110 z
b1011100 M
b1011100 q
b1011100 >"
b10110 o
b10110 %"
b10110 6"
b11000000000000000000 C
b11000000000000000000 `
b11000000000000000000 9"
b11000000000000000000 M"
1!
#85000
b100000 %
b1001 #
0!
#90000
b11000 B
b11000 @"
b11000 N"
b110 v
b11000 L
b11000 A"
b11000 G"
b11000 ]
b11000 n
b11000 w
b11000 5"
b111111111111111101100000000100 !"
b111111111111111101100000000100 3"
b111111111111111101100000000100 4"
b11011 G
b11011 D"
b11011 J"
b1100 O
b1100 W
b1100 8"
b11000 T
b11000 Y
b11000 m
b11000 F"
b1111 5
b1111 9
b1111 <
b1111 U
b11000 p
b11000 x
b11000 }
b11000 ""
b11000 0"
b1110101101100000000100 &"
b1110101101100000000100 ."
b1110101101100000000100 k
b1110101101100000000100 |
b1101100000000100 j
b1101100000000100 {
b1101100000000100 2"
b11010 i
b11010 y
b11010 )"
b1101100000000100 A
b1101100000000100 f
b11011 J
b11011 B"
b1100 C
b1100 `
b1100 9"
b1100 M"
b11010 H
b11010 C"
b11010 I"
b1 D
b1 X
b1 L"
b1 I
b1 H"
b100 6
b11000 #"
b11000 -"
b11000 /"
b1110101101100000000100 1
b1110101101100000000100 8
b1110101101100000000100 N
b1110101101100000000100 r
b1110101101100000000100 u
b10111 t
b111111111111111101100000011011 ("
b111111111111111101100000011011 +"
b11000 $"
b11000 ,"
b10111 s
b10111 z
b1100000 M
b1100000 q
b1100000 >"
b10111 o
b10111 %"
b10111 6"
1!
#95000
b100000 %
b1010 #
0!
#100000
b1100100 B
b1100100 @"
b1100100 N"
1?"
b110 n
b110 w
b110 5"
b111111111111111111100000001001 !"
b111111111111111111100000001001 3"
b111111111111111111100000001001 4"
b11111 G
b11111 D"
b11111 J"
b0 O
b0 W
b0 8"
1'
1(
b11111 5
b11111 9
b11111 <
b11111 U
b11001 p
b11001 x
b11001 }
b11001 ""
b11001 0"
b11011000001111100000001001 &"
b11011000001111100000001001 ."
b11011000001111100000001001 k
b11011000001111100000001001 |
b1111100000001001 j
b1111100000001001 {
b1111100000001001 2"
b0 i
b0 y
b0 )"
b1111100000001001 A
b1111100000001001 f
b11111 J
b11111 B"
b0 C
b0 `
b0 9"
b0 M"
b0 H
b0 C"
b0 I"
b11000 D
b11000 X
b11000 L"
b11011 I
b11011 H"
b1001 6
b11001 #"
b11001 -"
b11001 /"
b11011000001111100000001001 1
b11011000001111100000001001 8
b11011000001111100000001001 N
b11011000001111100000001001 r
b11011000001111100000001001 u
b11000 t
b111111111111111111100000100001 ("
b111111111111111111100000100001 +"
b11001 $"
b11001 ,"
b11000 s
b11000 z
b1100100 M
b1100100 q
b1100100 >"
b11000 o
b11000 %"
b11000 6"
1!
#105000
b100000 %
b1011 #
0!
#110000
b11 v
b1101 L
b1101 A"
b1101 G"
b1101 ]
b1101 T
b1101 Y
b1101 m
b1101 F"
0?"
b111 n
b111 w
b111 5"
b10100000100011 !"
b10100000100011 3"
b10100000100011 4"
b101 G
b101 D"
b101 J"
b100 O
b100 W
b100 8"
0'
0(
b11 5
b11 9
b11 <
b11 U
b111 p
b111 x
b111 }
b111 ""
b111 0"
b11001000010100000100011 &"
b11001000010100000100011 ."
b11001000010100000100011 k
b11001000010100000100011 |
b10100000100011 j
b10100000100011 {
b10100000100011 2"
b100 i
b100 y
b100 )"
b10100000100011 A
b10100000100011 f
b101 J
b101 B"
b100 C
b100 `
b100 9"
b100 M"
b100 H
b100 C"
b100 I"
b10001 D
b10001 X
b10001 L"
b11 I
b11 H"
b100011 6
b111 #"
b111 -"
b111 /"
b11001000010100000100011 1
b11001000010100000100011 8
b11001000010100000100011 N
b11001000010100000100011 r
b11001000010100000100011 u
b110 t
b1101 B
b1101 @"
b1101 N"
b10100000101001 ("
b10100000101001 +"
b111 $"
b111 ,"
b110 s
b110 z
b11100 M
b11100 q
b11100 >"
b110 o
b110 %"
b110 6"
1!
#115000
b100000 %
b1100 #
0!
#120000
b10100 B
b10100 @"
b10100 N"
b101 v
b10100 L
b10100 A"
b10100 G"
b10100 ]
b10100 T
b10100 Y
b10100 m
b10100 F"
0K"
b1000 n
b1000 w
b1000 5"
b10100 !"
b10100 3"
b10100 4"
b10100 @
b10100 g
b10100 h
b10100 7"
b0x0x G
b0x0x D"
b0x0x J"
b10100 O
b10100 W
b10100 8"
0)
b1 2
b1 :
b1 =
b1 e
1,
0*
b1 5
b1 9
b1 <
b1 U
14
x+
b1000 p
b1000 x
b1000 }
b1000 ""
b1000 0"
b1010000000000010100 &"
b1010000000000010100 ."
b1010000000000010100 k
b1010000000000010100 |
b10100 j
b10100 {
b10100 2"
b101 i
b101 y
b101 )"
b101011 l
b101011 ~
b101011 *"
b10100 A
b10100 f
b0 J
b0 B"
b1101 C
b1101 `
b1101 9"
b1101 M"
b101 H
b101 C"
b101 I"
b0 D
b0 X
b0 L"
b0 I
b0 H"
b10100 6
b101011 7
b1000 #"
b1000 -"
b1000 /"
b10101100000001010000000000010100 1
b10101100000001010000000000010100 8
b10101100000001010000000000010100 N
b10101100000001010000000000010100 r
b10101100000001010000000000010100 u
b111 t
b11011 ("
b11011 +"
b1000 $"
b1000 ,"
b111 s
b111 z
b100000 M
b100000 q
b100000 >"
b111 o
b111 %"
b111 6"
1!
#125000
b100000 %
b1101 #
0!
#130000
b11111111111111111111111111100010 B
b11111111111111111111111111100010 @"
b11111111111111111111111111100010 N"
b111111111111111111111111111000 v
b11111111111111111111111111100010 L
b11111111111111111111111111100010 A"
b11111111111111111111111111100010 G"
b111111100010 ]
1K"
b10000 O
b10000 W
b10000 8"
b1001 n
b1001 w
b1001 5"
b11000000100111 !"
b11000000100111 3"
b11000000100111 4"
b110 G
b110 D"
b110 J"
1F
b11111111111111111111111111100010 T
b11111111111111111111111111100010 Y
b11111111111111111111111111100010 m
b11111111111111111111111111100010 F"
1)
b0x 2
b0x :
b0x =
b0x e
0,
1*
b1110 5
b1110 9
b1110 <
b1110 U
04
1+
b1001 p
b1001 x
b1001 }
b1001 ""
b1001 0"
b101000100011000000100111 &"
b101000100011000000100111 ."
b101000100011000000100111 k
b101000100011000000100111 |
b11000000100111 j
b11000000100111 {
b11000000100111 2"
b10 i
b10 y
b10 )"
b0 l
b0 ~
b0 *"
b11000000100111 A
b11000000100111 f
b110 J
b110 B"
b10000 C
b10000 `
b10000 9"
b10000 M"
b10 H
b10 C"
b10 I"
b1101 D
b1101 X
b1101 L"
b101 I
b101 H"
b100111 6
b0 7
bx Q
bx ="
bx E"
b0xxxxxxxx S
b0xxxxxxxx c
b0xxxxxxxx d
b0xxxxxxxx :"
b1001 #"
b1001 -"
b1001 /"
b101000100011000000100111 1
b101000100011000000100111 8
b101000100011000000100111 N
b101000100011000000100111 r
b101000100011000000100111 u
b1000 t
bx P
bx _
bx ;"
bx R
bx ^
bx b
b11000000101111 ("
b11000000101111 +"
b1001 $"
b1001 ,"
b1000 s
b1000 z
b100100 M
b100100 q
b100100 >"
b1000 o
b1000 %"
b1000 6"
1!
#135000
b100000 %
b1110 #
0!
#140000
b11111111111111111111111111110011 B
b11111111111111111111111111110011 @"
b11111111111111111111111111110011 N"
b111111111111111111111111111100 v
b11111111111111111111111111110011 L
b11111111111111111111111111110011 A"
b11111111111111111111111111110011 G"
b111111110011 ]
b1010 n
b1010 w
b1010 5"
b11100000100101 !"
b11100000100101 3"
b11100000100101 4"
b111 G
b111 D"
b111 J"
b10001 O
b10001 W
b10001 8"
b11111111111111111111111111110011 T
b11111111111111111111111111110011 Y
b11111111111111111111111111110011 m
b11111111111111111111111111110011 F"
b101 5
b101 9
b101 <
b101 U
b1010 p
b1010 x
b1010 }
b1010 ""
b1010 0"
b110000110011100000100101 &"
b110000110011100000100101 ."
b110000110011100000100101 k
b110000110011100000100101 |
b11100000100101 j
b11100000100101 {
b11100000100101 2"
b11 i
b11 y
b11 )"
b11100000100101 A
b11100000100101 f
b111 J
b111 B"
b10001 C
b10001 `
b10001 9"
b10001 M"
b11 H
b11 C"
b11 I"
b11111111111111111111111111100010 D
b11111111111111111111111111100010 X
b11111111111111111111111111100010 L"
b110 I
b110 H"
b100101 6
b1010 #"
b1010 -"
b1010 /"
b110000110011100000100101 1
b110000110011100000100101 8
b110000110011100000100101 N
b110000110011100000100101 r
b110000110011100000100101 u
b1001 t
b11100000101110 ("
b11100000101110 +"
b1010 $"
b1010 ,"
b1001 s
b1001 z
b101000 M
b101000 q
b101000 >"
b1001 o
b1001 %"
b1001 6"
1!
#145000
b100000 %
b1111 #
0!
#150000
b1101xxxxxxxxxxxxxxxxxxxxxxxx Q
b1101xxxxxxxxxxxxxxxxxxxxxxxx ="
b1101xxxxxxxxxxxxxxxxxxxxxxxx E"
b1101xxxxxxxxxxxxxxxxxxxxxxxx P
b1101xxxxxxxxxxxxxxxxxxxxxxxx _
b1101xxxxxxxxxxxxxxxxxxxxxxxx ;"
b10001 B
b10001 @"
b10001 N"
0F
b100 v
b10001 L
b10001 A"
b10001 G"
b10001 ]
b1011 n
b1011 w
b1011 5"
b100000000100110 !"
b100000000100110 3"
b100000000100110 4"
b1000 G
b1000 D"
b1000 J"
b11111111111111111111111111100010 O
b11111111111111111111111111100010 W
b11111111111111111111111111100010 8"
b10001 T
b10001 Y
b10001 m
b10001 F"
b110 5
b110 9
b110 <
b110 U
b1011 p
b1011 x
b1011 }
b1011 ""
b1011 0"
b111001100100000000100110 &"
b111001100100000000100110 ."
b111001100100000000100110 k
b111001100100000000100110 |
b100000000100110 j
b100000000100110 {
b100000000100110 2"
b110 i
b110 y
b110 )"
b100000000100110 A
b100000000100110 f
b1000 J
b1000 B"
b11111111111111111111111111100010 C
b11111111111111111111111111100010 `
b11111111111111111111111111100010 9"
b11111111111111111111111111100010 M"
b110 H
b110 C"
b110 I"
b11111111111111111111111111110011 D
b11111111111111111111111111110011 X
b11111111111111111111111111110011 L"
b111 I
b111 H"
b100110 6
b1011 #"
b1011 -"
b1011 /"
b111001100100000000100110 1
b111001100100000000100110 8
b111001100100000000100110 N
b111001100100000000100110 r
b111001100100000000100110 u
b1010 t
b100000000110000 ("
b100000000110000 +"
b1011 $"
b1011 ,"
b1010 s
b1010 z
b101100 M
b101100 q
b101100 >"
b1010 o
b1010 %"
b1010 6"
1!
#155000
b100000 %
b10000 #
0!
